_8bitscpu/v2/testbench/tb_cpu.vcd
$date
	Wed Apr 08 15:28:51 2026
$end
$version
	Icarus Verilog
$end
$timescale
	1ps
$end
$scope module tb_cpu $end
$var wire 8 ! t_reg7 [7:0] $end
$var wire 8 " t_reg6 [7:0] $end
$var wire 8 # t_reg5 [7:0] $end
$var wire 8 $ t_reg4 [7:0] $end
$var wire 8 % t_reg3 [7:0] $end
$var wire 8 & t_reg2 [7:0] $end
$var wire 8 ' t_reg1 [7:0] $end
$var wire 8 ( t_reg0 [7:0] $end
$var wire 8 ) t_instruction [7:0] $end
$var wire 8 * t_count [7:0] $end
$var reg 1 + clk $end
$var reg 1 , reset $end
$scope module uut $end
$var wire 1 + clk $end
$var wire 1 , reset $end
$var wire 8 - t_count [7:0] $end
$var wire 8 . t_instruction [7:0] $end
$var wire 1 / write_enable $end
$var wire 8 0 write_data [7:0] $end
$var wire 1 1 wb_data_sel $end
$var wire 8 2 t_reg7 [7:0] $end
$var wire 8 3 t_reg6 [7:0] $end
$var wire 8 4 t_reg5 [7:0] $end
$var wire 8 5 t_reg4 [7:0] $end
$var wire 8 6 t_reg3 [7:0] $end
$var wire 8 7 t_reg2 [7:0] $end
$var wire 8 8 t_reg1 [7:0] $end
$var wire 8 9 t_reg0 [7:0] $end
$var wire 8 : reg2_data [7:0] $end
$var wire 3 ; reg2_addr [2:0] $end
$var wire 8 < reg1_data [7:0] $end
$var wire 3 = reg1_addr [2:0] $end
$var wire 1 > pc_write $end
$var wire 2 ? opcode [1:0] $end
$var wire 1 @ ir_write $end
$var wire 8 A instruction_to_ir [7:0] $end
$var wire 8 B instruction [7:0] $end
$var wire 8 C immediate [7:0] $end
$var wire 8 D count [7:0] $end
$var wire 1 E branch_taken $end
$var wire 1 F branch_en $end
$var wire 1 G alu_src_sel $end
$var wire 8 H alu_result [7:0] $end
$var wire 8 I alu_in_2 [7:0] $end
$scope module U_bchcontrol $end
$var wire 1 E branch_taken $end
$var wire 8 J reg1_data [7:0] $end
$var wire 1 F branch_en $end
$upscope $end
$scope module u_alu $end
$var wire 8 K input2 [7:0] $end
$var wire 8 L input1 [7:0] $end
$var wire 8 M alu_result [7:0] $end
$upscope $end
$scope module u_alumux $end
$var wire 8 N reg2_data [7:0] $end
$var wire 8 O immediate [7:0] $end
$var wire 1 G alu_src_sel $end
$var wire 8 P alu_in_2 [7:0] $end
$upscope $end
$scope module u_cpucontrol $end
$var wire 1 + clk $end
$var wire 1 , reset $end
$var wire 2 Q opcode [1:0] $end
$var parameter 1 R EXECUTE $end
$var parameter 1 S FETCH $end
$var reg 1 G alu_src_sel $end
$var reg 1 F branch_en $end
$var reg 1 @ ir_write $end
$var reg 1 T next_state $end
$var reg 1 > pc_write $end
$var reg 1 / reg_write $end
$var reg 1 U state $end
$var reg 1 1 wb_data_sel $end
$upscope $end
$scope module u_immgen $end
$var wire 8 V instruction [7:0] $end
$var wire 8 W immediate [7:0] $end
$upscope $end
$scope module u_insdecoder $end
$var wire 3 X reg2_addr [2:0] $end
$var wire 3 Y reg1_addr [2:0] $end
$var wire 2 Z opcode [1:0] $end
$var wire 8 [ instruction [7:0] $end
$upscope $end
$scope module u_insmem $end
$var wire 8 \ instruction [7:0] $end
$var wire 8 ] mem_addr [7:0] $end
$var integer 32 ^ i [31:0] $end
$upscope $end
$scope module u_insreg $end
$var wire 1 + clk $end
$var wire 8 _ instruction_in [7:0] $end
$var wire 1 @ ir_write $end
$var wire 1 , reset $end
$var reg 8 ` instruction_out [7:0] $end
$upscope $end
$scope module u_pc $end
$var wire 1 E branch_taken $end
$var wire 1 + clk $end
$var wire 8 a pc_branch [7:0] $end
$var wire 1 > pc_write $end
$var wire 1 , reset $end
$var wire 8 b count [7:0] $end
$var reg 8 c pc [7:0] $end
$var reg 8 d pc_next [7:0] $end
$upscope $end
$scope module u_regfile $end
$var wire 1 + clk $end
$var wire 3 e reg1_addr [2:0] $end
$var wire 3 f reg2_addr [2:0] $end
$var wire 8 g regs0_data [7:0] $end
$var wire 8 h regs1_data [7:0] $end
$var wire 8 i regs2_data [7:0] $end
$var wire 8 j regs3_data [7:0] $end
$var wire 8 k regs4_data [7:0] $end
$var wire 8 l regs5_data [7:0] $end
$var wire 8 m regs6_data [7:0] $end
$var wire 8 n regs7_data [7:0] $end
$var wire 1 , reset $end
$var wire 3 o write_addr [2:0] $end
$var wire 1 / write_enable $end
$var wire 8 p write_data [7:0] $end
$var wire 8 q reg2_data [7:0] $end
$var wire 8 r reg1_data [7:0] $end
$var integer 32 s i [31:0] $end
$upscope $end
$scope module u_wbmux $end
$var wire 8 t alu_result [7:0] $end
$var wire 8 u reg2_data [7:0] $end
$var wire 1 1 wb_data_sel $end
$var wire 8 v write_data [7:0] $end
$upscope $end
$upscope $end
$upscope $end
$enddefinitions $end
$comment Show the parameter values. $end
$dumpall
0S
1R
$end
#0
$dumpvars
bx v
bx u
bx t
bx s
bx r
bx q
bx p
bx o
bx n
bx m
bx l
bx k
bx j
bx i
bx h
bx g
bx f
bx e
bx d
bx c
bx b
bx a
bx `
bx _
b100000000 ^
bx ]
bx \
bx [
bx Z
bx Y
bx X
bx W
bx V
xU
xT
bx Q
bx P
bx O
bx N
bx M
bx L
bx K
bx J
bx I
bx H
xG
xF
xE
bx D
bx C
bx B
bx A
x@
bx ?
x>
bx =
bx <
bx ;
bx :
bx 9
bx 8
bx 7
bx 6
bx 5
bx 4
bx 3
bx 2
x1
bx 0
x/
bx .
bx -
x,
0+
bx *
bx )
bx (
bx '
bx &
bx %
bx $
bx #
bx "
bx !
$end
#5
1+
#10
0+
1,
#15
b0 0
b0 p
b0 v
b0 H
b0 M
b0 t
b0 I
b0 K
b0 P
0E
b0 :
b0 N
b0 q
b0 u
b0 <
b0 J
b0 L
b0 r
01
0F
0G
0/
0>
1@
1T
b0 ;
b0 X
b0 f
b0 =
b0 Y
b0 e
b0 o
b0 ?
b0 Q
b0 Z
b0 C
b0 O
b0 W
b0 a
b1 d
0U
b0 !
b0 2
b0 n
b0 "
b0 3
b0 m
b0 #
b0 4
b0 l
b0 $
b0 5
b0 k
b0 %
b0 6
b0 j
b0 &
b0 7
b0 i
b0 '
b0 8
b0 h
b0 (
b0 9
b0 g
b0 )
b0 .
b0 B
b0 V
b0 [
b0 `
b11001000 A
b11001000 \
b11001000 _
b0 *
b0 -
b0 D
b0 ]
b0 b
b0 c
b1000 s
1+
#20
0+
0,
#25
11
b1 =
b1 Y
b1 e
b1 o
b11 ?
b11 Q
b11 Z
1/
1>
0@
0T
b11001000 )
b11001000 .
b11001000 B
b11001000 V
b11001000 [
b11001000 `
1U
1+
#30
0+
#35
1@
01
0/
0>
1T
b10 d
0U
b1001011 A
b1001011 \
b1001011 _
b1 *
b1 -
b1 D
b1 ]
b1 b
b1 c
1+
#40
0+
#45
b11 0
b11 p
b11 v
b11 H
b11 M
b11 t
b11 I
b11 K
b11 P
1G
b11 ;
b11 X
b11 f
b1 ?
b1 Q
b1 Z
b11 C
b11 O
b11 W
b11 a
01
1/
1>
0@
0T
b1001011 )
b1001011 .
b1001011 B
b1001011 V
b1001011 [
b1001011 `
1U
1+
#50
0+
#55
b0 I
b0 K
b0 P
b11 0
b11 p
b11 v
1@
0G
0/
0>
1T
b11 H
b11 M
b11 t
b11 <
b11 J
b11 L
b11 r
b11 d
0U
b11 '
b11 8
b11 h
b10 *
b10 -
b10 D
b10 ]
b10 b
b10 c
1+
#60
0+
#65
b110 0
b110 p
b110 v
b110 H
b110 M
b110 t
b11 I
b11 K
b11 P
1G
1/
1>
0@
0T
1U
1+
#70
0+
#75
b0 I
b0 K
b0 P
b110 0
b110 p
b110 v
1@
0G
0/
0>
1T
b110 H
b110 M
b110 t
b110 <
b110 J
b110 L
b110 r
b100 d
0U
b110 '
b110 8
b110 h
b1001111 A
b1001111 \
b1001111 _
b11 *
b11 -
b11 D
b11 ]
b11 b
b11 c
1+
#80
0+
#85
b101 0
b101 p
b101 v
b101 H
b101 M
b101 t
b11111111 I
b11111111 K
b11111111 P
b111 ;
b111 X
b111 f
b11111111 C
b11111111 O
b11111111 W
b11111111 a
1G
1/
1>
0@
0T
b1001111 )
b1001111 .
b1001111 B
b1001111 V
b1001111 [
b1001111 `
1U
1+
#90
0+
#95
b0 I
b0 K
b0 P
b101 0
b101 p
b101 v
1@
0G
0/
0>
1T
b101 H
b101 M
b101 t
b101 <
b101 J
b101 L
b101 r
b101 d
0U
b101 '
b101 8
b101 h
b11010001 A
b11010001 \
b11010001 _
b100 *
b100 -
b100 D
b100 ]
b100 b
b100 c
1+
#100
0+
#105
b101 :
b101 N
b101 q
b101 u
b0 <
b0 J
b0 L
b0 r
11
b101 H
b101 M
b101 t
b101 I
b101 K
b101 P
b1 ;
b1 X
b1 f
b10 =
b10 Y
b10 e
b10 o
b11 ?
b11 Q
b11 Z
b1 C
b1 O
b1 W
b1 a
0G
1/
1>
0@
0T
b11010001 )
b11010001 .
b11010001 B
b11010001 V
b11010001 [
b11010001 `
1U
1+
#110
0+
#115
b1010 0
b1010 p
b1010 v
1@
01
0/
0>
1T
b1010 H
b1010 M
b1010 t
b101 <
b101 J
b101 L
b101 r
b110 d
0U
b101 &
b101 7
b101 i
b10001 A
b10001 \
b10001 _
b101 *
b101 -
b101 D
b101 ]
b101 b
b101 c
1+
#120
0+
#125
b1010 0
b1010 p
b1010 v
b0 ?
b0 Q
b0 Z
01
1/
1>
0@
0T
b10001 )
b10001 .
b10001 B
b10001 V
b10001 [
b10001 `
1U
1+
#130
0+
#135
b1111 0
b1111 p
b1111 v
1@
0/
0>
1T
b1111 H
b1111 M
b1111 t
b1010 <
b1010 J
b1010 L
b1010 r
b111 d
0U
b1010 &
b1010 7
b1010 i
b1010100 A
b1010100 \
b1010100 _
b110 *
b110 -
b110 D
b110 ]
b110 b
b110 c
1+
#140
0+
#145
b110 0
b110 p
b110 v
b110 H
b110 M
b110 t
b11111100 I
b11111100 K
b11111100 P
b0 :
b0 N
b0 q
b0 u
1G
b100 ;
b100 X
b100 f
b1 ?
b1 Q
b1 Z
b11111100 C
b11111100 O
b11111100 W
b11111100 a
1/
1>
0@
0T
b1010100 )
b1010100 .
b1010100 B
b1010100 V
b1010100 [
b1010100 `
1U
1+
#150
0+
#155
b0 I
b0 K
b0 P
b110 0
b110 p
b110 v
1@
0G
0/
0>
1T
b110 H
b110 M
b110 t
b110 <
b110 J
b110 L
b110 r
b1000 d
0U
b110 &
b110 7
b110 i
b11011000 A
b11011000 \
b11011000 _
b111 *
b111 -
b111 D
b111 ]
b111 b
b111 c
1+
#160
0+
#165
b0 0
b0 p
b0 v
b0 H
b0 M
b0 t
b0 <
b0 J
b0 L
b0 r
11
b0 ;
b0 X
b0 f
b11 =
b11 Y
b11 e
b11 o
b11 ?
b11 Q
b11 Z
b0 C
b0 O
b0 W
b0 a
0G
1/
1>
0@
0T
b11011000 )
b11011000 .
b11011000 B
b11011000 V
b11011000 [
b11011000 `
1U
1+
#170
0+
#175
1@
01
0/
0>
1T
b1001 d
0U
b10011010 A
b10011010 \
b10011010 _
b1000 *
b1000 -
b1000 D
b1000 ]
b1000 b
b1000 c
1+
#180
0+
#185
b110 0
b110 p
b110 v
b1010 d
b110 H
b110 M
b110 t
b110 I
b110 K
b110 P
1E
b110 :
b110 N
b110 q
b110 u
1F
b10 ;
b10 X
b10 f
b10 ?
b10 Q
b10 Z
b10 C
b10 O
b10 W
b10 a
01
0/
1>
0@
0T
b10011010 )
b10011010 .
b10011010 B
b10011010 V
b10011010 [
b10011010 `
1U
1+
#190
0+
#195
0E
1@
0F
0>
1T
b1011 d
0U
b1011001 A
b1011001 \
b1011001 _
b1010 *
b1010 -
b1010 D
b1010 ]
b1010 b
b1010 c
1+
#200
0+
#205
b1 0
b1 p
b1 v
b1 H
b1 M
b1 t
b1 I
b1 K
b1 P
b101 :
b101 N
b101 q
b101 u
1G
1/
0E
b1 ;
b1 X
b1 f
b1 ?
b1 Q
b1 Z
b1 C
b1 O
b1 W
b1 a
0F
1>
0@
0T
b1011001 )
b1011001 .
b1011001 B
b1011001 V
b1011001 [
b1011001 `
1U
1+
#210
0+
#215
b101 I
b101 K
b101 P
b110 0
b110 p
b110 v
1@
0G
0/
0>
1T
b110 H
b110 M
b110 t
b1 <
b1 J
b1 L
b1 r
b1100 d
0U
b1 %
b1 6
b1 j
b10011010 A
b10011010 \
b10011010 _
b1011 *
b1011 -
b1011 D
b1011 ]
b1011 b
b1011 c
1+
#220
0+
#225
b111 0
b111 p
b111 v
b110 :
b110 N
b110 q
b110 u
1F
b111 H
b111 M
b111 t
b110 I
b110 K
b110 P
b10 ;
b10 X
b10 f
b10 ?
b10 Q
b10 Z
b10 C
b10 O
b10 W
b10 a
0G
0/
1>
0@
0T
b10011010 )
b10011010 .
b10011010 B
b10011010 V
b10011010 [
b10011010 `
1U
1+
#230
0+
#235
1@
0F
0>
1T
b1101 d
0U
b1001001 A
b1001001 \
b1001001 _
b1100 *
b1100 -
b1100 D
b1100 ]
b1100 b
b1100 c
1+
#240
0+
#245
b110 0
b110 p
b110 v
b1 I
b1 K
b1 P
b101 :
b101 N
b101 q
b101 u
b110 H
b110 M
b110 t
b101 <
b101 J
b101 L
b101 r
1G
1/
b1 ;
b1 X
b1 f
b1 =
b1 Y
b1 e
b1 o
b1 ?
b1 Q
b1 Z
b1 C
b1 O
b1 W
b1 a
0F
1>
0@
0T
b1001001 )
b1001001 .
b1001001 B
b1001001 V
b1001001 [
b1001001 `
1U
1+
#250
0+
#255
b110 I
b110 K
b110 P
b1100 0
b1100 p
b1100 v
1@
0G
0/
0>
1T
b1100 H
b1100 M
b1100 t
b110 <
b110 J
b110 L
b110 r
b110 :
b110 N
b110 q
b110 u
b1110 d
0U
b110 '
b110 8
b110 h
b11100000 A
b11100000 \
b11100000 _
b1101 *
b1101 -
b1101 D
b1101 ]
b1101 b
b1101 c
1+
#260
0+
#265
b0 0
b0 p
b0 v
b0 :
b0 N
b0 q
b0 u
b0 <
b0 J
b0 L
b0 r
11
b0 H
b0 M
b0 t
b0 I
b0 K
b0 P
b0 ;
b0 X
b0 f
b100 =
b100 Y
b100 e
b100 o
b11 ?
b11 Q
b11 Z
b0 C
b0 O
b0 W
b0 a
0G
1/
1>
0@
0T
b11100000 )
b11100000 .
b11100000 B
b11100000 V
b11100000 [
b11100000 `
1U
1+
#270
0+
#275
1@
01
0/
0>
1T
b1111 d
0U
b1100010 A
b1100010 \
b1100010 _
b1110 *
b1110 -
b1110 D
b1110 ]
b1110 b
b1110 c
1+
#280
0+
#285
b10 0
b10 p
b10 v
b10 H
b10 M
b10 t
b10 I
b10 K
b10 P
b110 :
b110 N
b110 q
b110 u
1G
b10 ;
b10 X
b10 f
b1 ?
b1 Q
b1 Z
b10 C
b10 O
b10 W
b10 a
01
1/
1>
0@
0T
b1100010 )
b1100010 .
b1100010 B
b1100010 V
b1100010 [
b1100010 `
1U
1+
#290
0+
#295
b110 I
b110 K
b110 P
b1000 0
b1000 p
b1000 v
1@
0G
0/
0>
1T
b1000 H
b1000 M
b1000 t
b10 <
b10 J
b10 L
b10 r
b10000 d
0U
b10 $
b10 5
b10 k
b100001 A
b100001 \
b100001 _
b1111 *
b1111 -
b1111 D
b1111 ]
b1111 b
b1111 c
1+
#300
0+
#305
b1000 0
b1000 p
b1000 v
b1000 H
b1000 M
b1000 t
b110 I
b110 K
b110 P
b1 ;
b1 X
b1 f
b0 ?
b0 Q
b0 Z
b1 C
b1 O
b1 W
b1 a
0G
1/
1>
0@
0T
b100001 )
b100001 .
b100001 B
b100001 V
b100001 [
b100001 `
1U
1+
#310
0+
#315
b1110 0
b1110 p
b1110 v
1@
0/
0>
1T
b1110 H
b1110 M
b1110 t
b1000 <
b1000 J
b1000 L
b1000 r
b10001 d
0U
b1000 $
b1000 5
b1000 k
b1100101 A
b1100101 \
b1100101 _
b10000 *
b10000 -
b10000 D
b10000 ]
b10000 b
b10000 c
1+
#320
0+
#325
b101 0
b101 p
b101 v
b101 H
b101 M
b101 t
b11111101 I
b11111101 K
b11111101 P
b0 :
b0 N
b0 q
b0 u
1G
b101 ;
b101 X
b101 f
b1 ?
b1 Q
b1 Z
b11111101 C
b11111101 O
b11111101 W
b11111101 a
1/
1>
0@
0T
b1100101 )
b1100101 .
b1100101 B
b1100101 V
b1100101 [
b1100101 `
1U
1+
#330
0+
#335
b0 I
b0 K
b0 P
b101 0
b101 p
b101 v
1@
0G
0/
0>
1T
b101 H
b101 M
b101 t
b101 <
b101 J
b101 L
b101 r
b10010 d
0U
b101 $
b101 5
b101 k
b11101100 A
b11101100 \
b11101100 _
b10001 *
b10001 -
b10001 D
b10001 ]
b10001 b
b10001 c
1+
#340
0+
#345
b101 :
b101 N
b101 q
b101 u
b0 <
b0 J
b0 L
b0 r
11
b101 H
b101 M
b101 t
b101 I
b101 K
b101 P
b100 ;
b100 X
b100 f
b101 =
b101 Y
b101 e
b101 o
b11 ?
b11 Q
b11 Z
b11111100 C
b11111100 O
b11111100 W
b11111100 a
0G
1/
1>
0@
0T
b11101100 )
b11101100 .
b11101100 B
b11101100 V
b11101100 [
b11101100 `
1U
1+
#350
0+
#355
b1010 0
b1010 p
b1010 v
1@
01
0/
0>
1T
b1010 H
b1010 M
b1010 t
b101 <
b101 J
b101 L
b101 r
b10011 d
0U
b101 #
b101 4
b101 l
b101010 A
b101010 \
b101010 _
b10010 *
b10010 -
b10010 D
b10010 ]
b10010 b
b10010 c
1+
#360
0+
#365
b1011 H
b1011 M
b1011 t
b110 I
b110 K
b110 P
b110 :
b110 N
b110 q
b110 u
b1011 0
b1011 p
b1011 v
b10 ;
b10 X
b10 f
b0 ?
b0 Q
b0 Z
b10 C
b10 O
b10 W
b10 a
01
1/
1>
0@
0T
b101010 )
b101010 .
b101010 B
b101010 V
b101010 [
b101010 `
1U
1+
#370
0+
#375
b10001 0
b10001 p
b10001 v
1@
0/
0>
1T
b10001 H
b10001 M
b10001 t
b1011 <
b1011 J
b1011 L
b1011 r
b10100 d
0U
b1011 #
b1011 4
b1011 l
b1101100 A
b1101100 \
b1101100 _
b10011 *
b10011 -
b10011 D
b10011 ]
b10011 b
b10011 c
1+
#380
0+
#385
b111 0
b111 p
b111 v
b111 H
b111 M
b111 t
b11111100 I
b11111100 K
b11111100 P
b101 :
b101 N
b101 q
b101 u
1G
b100 ;
b100 X
b100 f
b1 ?
b1 Q
b1 Z
b11111100 C
b11111100 O
b11111100 W
b11111100 a
1/
1>
0@
0T
b1101100 )
b1101100 .
b1101100 B
b1101100 V
b1101100 [
b1101100 `
1U
1+
#390
0+
#395
b101 I
b101 K
b101 P
b1100 0
b1100 p
b1100 v
1@
0G
0/
0>
1T
b1100 H
b1100 M
b1100 t
b111 <
b111 J
b111 L
b111 r
b10101 d
0U
b111 #
b111 4
b111 l
b11110000 A
b11110000 \
b11110000 _
b10100 *
b10100 -
b10100 D
b10100 ]
b10100 b
b10100 c
1+
#400
0+
#405
b0 0
b0 p
b0 v
b0 :
b0 N
b0 q
b0 u
b0 <
b0 J
b0 L
b0 r
11
b0 H
b0 M
b0 t
b0 I
b0 K
b0 P
b0 ;
b0 X
b0 f
b110 =
b110 Y
b110 e
b110 o
b11 ?
b11 Q
b11 Z
b0 C
b0 O
b0 W
b0 a
0G
1/
1>
0@
0T
b11110000 )
b11110000 .
b11110000 B
b11110000 V
b11110000 [
b11110000 `
1U
1+
#410
0+
#415
1@
01
0/
0>
1T
b10110 d
0U
b10110010 A
b10110010 \
b10110010 _
b10101 *
b10101 -
b10101 D
b10101 ]
b10101 b
b10101 c
1+
#420
0+
#425
b110 0
b110 p
b110 v
b10111 d
b110 H
b110 M
b110 t
b110 I
b110 K
b110 P
1E
b110 :
b110 N
b110 q
b110 u
1F
b10 ;
b10 X
b10 f
b10 ?
b10 Q
b10 Z
b10 C
b10 O
b10 W
b10 a
01
0/
1>
0@
0T
b10110010 )
b10110010 .
b10110010 B
b10110010 V
b10110010 [
b10110010 `
1U
1+
#430
0+
#435
0E
1@
0F
0>
1T
b11000 d
0U
b1110010 A
b1110010 \
b1110010 _
b10111 *
b10111 -
b10111 D
b10111 ]
b10111 b
b10111 c
1+
#440
0+
#445
b10 0
b10 p
b10 v
b10 H
b10 M
b10 t
b10 I
b10 K
b10 P
b11000 d
1G
1/
0E
b1 ?
b1 Q
b1 Z
0F
1>
0@
0T
b1110010 )
b1110010 .
b1110010 B
b1110010 V
b1110010 [
b1110010 `
1U
1+
#450
0+
#455
b110 I
b110 K
b110 P
b1000 0
b1000 p
b1000 v
1@
0G
0/
0>
1T
b1000 H
b1000 M
b1000 t
b10 <
b10 J
b10 L
b10 r
b11001 d
0U
b10 "
b10 3
b10 m
b10110010 A
b10110010 \
b10110010 _
b11000 *
b11000 -
b11000 D
b11000 ]
b11000 b
b11000 c
1+
#460
0+
#465
b1000 0
b1000 p
b1000 v
1F
b1000 H
b1000 M
b1000 t
b110 I
b110 K
b110 P
b10 ?
b10 Q
b10 Z
0G
0/
1>
0@
0T
b10110010 )
b10110010 .
b10110010 B
b10110010 V
b10110010 [
b10110010 `
1U
1+
#470
0+
#475
1@
0F
0>
1T
b11010 d
0U
b11111110 A
b11111110 \
b11111110 _
b11001 *
b11001 -
b11001 D
b11001 ]
b11001 b
b11001 c
1+
#480
0+
#485
b10 I
b10 K
b10 P
b10 0
b10 p
b10 v
b10 :
b10 N
b10 q
b10 u
b10 H
b10 M
b10 t
b0 <
b0 J
b0 L
b0 r
11
1/
b110 ;
b110 X
b110 f
b111 =
b111 Y
b111 e
b111 o
b11 ?
b11 Q
b11 Z
b11111110 C
b11111110 O
b11111110 W
b11111110 a
0F
1>
0@
0T
b11111110 )
b11111110 .
b11111110 B
b11111110 V
b11111110 [
b11111110 `
1U
1+
#490
0+
#495
b100 0
b100 p
b100 v
1@
01
0/
0>
1T
b100 H
b100 M
b100 t
b10 <
b10 J
b10 L
b10 r
b11011 d
0U
b10 !
b10 2
b10 n
b111001 A
b111001 \
b111001 _
b11010 *
b11010 -
b11010 D
b11010 ]
b11010 b
b11010 c
1+
#500
0+
#505
b1000 H
b1000 M
b1000 t
b110 I
b110 K
b110 P
b110 :
b110 N
b110 q
b110 u
b1000 0
b1000 p
b1000 v
b1 ;
b1 X
b1 f
b0 ?
b0 Q
b0 Z
b1 C
b1 O
b1 W
b1 a
01
1/
1>
0@
0T
b111001 )
b111001 .
b111001 B
b111001 V
b111001 [
b111001 `
1U
1+
#510
0+
#515
b1110 0
b1110 p
b1110 v
1@
0/
0>
1T
b1110 H
b1110 M
b1110 t
b1000 <
b1000 J
b1000 L
b1000 r
b11100 d
0U
b1000 !
b1000 2
b1000 n
b1111111 A
b1111111 \
b1111111 _
b11011 *
b11011 -
b11011 D
b11011 ]
b11011 b
b11011 c
1+
#520
0+
#525
b111 0
b111 p
b111 v
b111 H
b111 M
b111 t
b11111111 I
b11111111 K
b11111111 P
b1000 :
b1000 N
b1000 q
b1000 u
1G
b111 ;
b111 X
b111 f
b1 ?
b1 Q
b1 Z
b11111111 C
b11111111 O
b11111111 W
b11111111 a
1/
1>
0@
0T
b1111111 )
b1111111 .
b1111111 B
b1111111 V
b1111111 [
b1111111 `
1U
1+
#530
0+
#535
b111 I
b111 K
b111 P
b1110 0
b1110 p
b1110 v
1@
0G
0/
0>
1T
b1110 H
b1110 M
b1110 t
b111 <
b111 J
b111 L
b111 r
b111 :
b111 N
b111 q
b111 u
b11101 d
0U
b111 !
b111 2
b111 n
b11010111 A
b11010111 \
b11010111 _
b11100 *
b11100 -
b11100 D
b11100 ]
b11100 b
b11100 c
1+
#540
0+
#545
b111 0
b111 p
b111 v
b110 <
b110 J
b110 L
b110 r
11
b1101 H
b1101 M
b1101 t
b111 I
b111 K
b111 P
b10 =
b10 Y
b10 e
b10 o
b11 ?
b11 Q
b11 Z
0G
1/
1>
0@
0T
b11010111 )
b11010111 .
b11010111 B
b11010111 V
b11010111 [
b11010111 `
1U
1+
#550
0+
#555
b1110 0
b1110 p
b1110 v
1@
01
0/
0>
1T
b1110 H
b1110 M
b1110 t
b111 <
b111 J
b111 L
b111 r
b11110 d
0U
b111 &
b111 7
b111 i
b10000111 A
b10000111 \
b10000111 _
b11101 *
b11101 -
b11101 D
b11101 ]
b11101 b
b11101 c
1+
#560
0+
#565
b11100 d
1E
b111 H
b111 M
b111 t
b0 <
b0 J
b0 L
b0 r
1F
b111 0
b111 p
b111 v
b0 =
b0 Y
b0 e
b0 o
b10 ?
b10 Q
b10 Z
01
0/
1>
0@
0T
b10000111 )
b10000111 .
b10000111 B
b10000111 V
b10000111 [
b10000111 `
1U
1+
#570
0+
#575
0E
1@
0F
0>
1T
b11101 d
0U
b11010111 A
b11010111 \
b11010111 _
b11100 *
b11100 -
b11100 D
b11100 ]
b11100 b
b11100 c
1+
#580
0+
#585
b11101 d
b1110 H
b1110 M
b1110 t
b111 <
b111 J
b111 L
b111 r
11
1/
0E
b10 =
b10 Y
b10 e
b10 o
b11 ?
b11 Q
b11 Z
0F
1>
0@
0T
b11010111 )
b11010111 .
b11010111 B
b11010111 V
b11010111 [
b11010111 `
1U
1+
#590
0+
#595
b1110 0
b1110 p
b1110 v
1@
01
0/
0>
1T
b11110 d
0U
b10000111 A
b10000111 \
b10000111 _
b11101 *
b11101 -
b11101 D
b11101 ]
b11101 b
b11101 c
1+
#600
0+
#605
b11100 d
1E
b111 H
b111 M
b111 t
b0 <
b0 J
b0 L
b0 r
1F
b111 0
b111 p
b111 v
b0 =
b0 Y
b0 e
b0 o
b10 ?
b10 Q
b10 Z
01
0/
1>
0@
0T
b10000111 )
b10000111 .
b10000111 B
b10000111 V
b10000111 [
b10000111 `
1U
1+
#610
0+
#615
0E
1@
0F
0>
1T
b11101 d
0U
b11010111 A
b11010111 \
b11010111 _
b11100 *
b11100 -
b11100 D
b11100 ]
b11100 b
b11100 c
1+
#620
0+
#625
b11101 d
b1110 H
b1110 M
b1110 t
b111 <
b111 J
b111 L
b111 r
11
1/
0E
b10 =
b10 Y
b10 e
b10 o
b11 ?
b11 Q
b11 Z
0F
1>
0@
0T
b11010111 )
b11010111 .
b11010111 B
b11010111 V
b11010111 [
b11010111 `
1U
1+
#630
0+
#635
b1110 0
b1110 p
b1110 v
1@
01
0/
0>
1T
b11110 d
0U
b10000111 A
b10000111 \
b10000111 _
b11101 *
b11101 -
b11101 D
b11101 ]
b11101 b
b11101 c
1+
#640
0+
#645
b11100 d
1E
b111 H
b111 M
b111 t
b0 <
b0 J
b0 L
b0 r
1F
b111 0
b111 p
b111 v
b0 =
b0 Y
b0 e
b0 o
b10 ?
b10 Q
b10 Z
01
0/
1>
0@
0T
b10000111 )
b10000111 .
b10000111 B
b10000111 V
b10000111 [
b10000111 `
1U
1+
#650
0+
#655
0E
1@
0F
0>
1T
b11101 d
0U
b11010111 A
b11010111 \
b11010111 _
b11100 *
b11100 -
b11100 D
b11100 ]
b11100 b
b11100 c
1+
#660
0+
#665
b11101 d
b1110 H
b1110 M
b1110 t
b111 <
b111 J
b111 L
b111 r
11
1/
0E
b10 =
b10 Y
b10 e
b10 o
b11 ?
b11 Q
b11 Z
0F
1>
0@
0T
b11010111 )
b11010111 .
b11010111 B
b11010111 V
b11010111 [
b11010111 `
1U
1+
#670
0+
#675
b1110 0
b1110 p
b1110 v
1@
01
0/
0>
1T
b11110 d
0U
b10000111 A
b10000111 \
b10000111 _
b11101 *
b11101 -
b11101 D
b11101 ]
b11101 b
b11101 c
1+
#680
0+
#685
b11100 d
1E
b111 H
b111 M
b111 t
b0 <
b0 J
b0 L
b0 r
1F
b111 0
b111 p
b111 v
b0 =
b0 Y
b0 e
b0 o
b10 ?
b10 Q
b10 Z
01
0/
1>
0@
0T
b10000111 )
b10000111 .
b10000111 B
b10000111 V
b10000111 [
b10000111 `
1U
1+
#690
0+
#695
0E
1@
0F
0>
1T
b11101 d
0U
b11010111 A
b11010111 \
b11010111 _
b11100 *
b11100 -
b11100 D
b11100 ]
b11100 b
b11100 c
1+
#700
0+
#705
b11101 d
b1110 H
b1110 M
b1110 t
b111 <
b111 J
b111 L
b111 r
11
1/
0E
b10 =
b10 Y
b10 e
b10 o
b11 ?
b11 Q
b11 Z
0F
1>
0@
0T
b11010111 )
b11010111 .
b11010111 B
b11010111 V
b11010111 [
b11010111 `
1U
1+
#710
0+
#715
b1110 0
b1110 p
b1110 v
1@
01
0/
0>
1T
b11110 d
0U
b10000111 A
b10000111 \
b10000111 _
b11101 *
b11101 -
b11101 D
b11101 ]
b11101 b
b11101 c
1+
#720
0+
#725
b11100 d
1E
b111 H
b111 M
b111 t
b0 <
b0 J
b0 L
b0 r
1F
b111 0
b111 p
b111 v
b0 =
b0 Y
b0 e
b0 o
b10 ?
b10 Q
b10 Z
01
0/
1>
0@
0T
b10000111 )
b10000111 .
b10000111 B
b10000111 V
b10000111 [
b10000111 `
1U
1+
#730
0+
#735
0E
1@
0F
0>
1T
b11101 d
0U
b11010111 A
b11010111 \
b11010111 _
b11100 *
b11100 -
b11100 D
b11100 ]
b11100 b
b11100 c
1+
#740
0+
#745
b11101 d
b1110 H
b1110 M
b1110 t
b111 <
b111 J
b111 L
b111 r
11
1/
0E
b10 =
b10 Y
b10 e
b10 o
b11 ?
b11 Q
b11 Z
0F
1>
0@
0T
b11010111 )
b11010111 .
b11010111 B
b11010111 V
b11010111 [
b11010111 `
1U
1+
#750
0+
#755
b1110 0
b1110 p
b1110 v
1@
01
0/
0>
1T
b11110 d
0U
b10000111 A
b10000111 \
b10000111 _
b11101 *
b11101 -
b11101 D
b11101 ]
b11101 b
b11101 c
1+
#760
0+
